[
    {
        "_id":"co-01",
        "_parentId":"course",
        "_type":"page",
        "_classes":"",
        "title":"essentials first page",
        "displayTitle":"essentials first page",
        "body":""
    },
    {
        "_id":"co-02",
        "_parentId":"course",
        "_type":"menu",
        "_classes":"",
        "title":"Menu",
        "displayTitle":"Menu",
        "body":"",
        "_coverMenu":{
            "_introItemGraphic": {
                "alt": "",
                "src": "course/en/images/menu_returnArrow.png",
                "title": "Intro Page"
            }
        }
    },
    {
        "_id":"co-05",
        "_parentId":"co-02",
        "_type":"page",
        "_classes":"",
        "coursetitle":"Catering<br/> Health and Safety",
        "title":"Responsibilities",
        "displayTitle":"Responsibilities",
        "body":"Welcome to this Health & Safety topic on responsibilities.",
        "_coverMenu":{
            "_backgroundGraphic": {
                "alt": "This is a picture of Adapt's origami birds.",
                "src": "course/en/images/menu_bg_1.jpg"
            },
            "_indicatorGraphic": {
                "_isComplete": "course/en/images/menu_btn1_complete.png",
                "_isVisited": "course/en/images/menu_btn1_started.png",
                "_default":"course/en/images/menu_btn1_notStarted.png",
                "_accessibilityEnabled": "course/en/images/menu_btn1_notStarted.png"
            },
            "menuViewButton": "Select here to view page one."
        },
        "_ariaLabels": {
            "menuItemPage": "Page one, tab to View button to enter."
        },
        "linkText":"View",
        "duration":"2 mins",
        "_footer": {
            "_isEnabled": true,
            "_isContinuous": "global",
            "_buttons": {
                "_root": {
                    "_isHidden": false,
                    "text": "Go to main menu"
                },
                "_up": {
                    "_isHidden": true,
                    "text": "Back to menu"
                },
                "_previous": {
                    "_isHidden": true,
                    "text": "< Previous"
                },
                "_next": {
                    "_isHidden": true,
                    "text": "Next >"
                }
            }
        }
    },
    {
        "_id":"co-10",
        "_parentId":"co-02",
        "_type":"page",
        "_classes":"",
        "coursetitle":"Catering<br/> Health and Safety",
        "title":"Consequences",
        "displayTitle":"Consequences",
        "body":"Welcome to this Health & Safety topic on consequences.",
        "_coverMenu":{
            "_backgroundGraphic": {
                "alt": "This is a picture of Adapt's origami birds.",
                "src": "course/en/images/menu_bg_2.jpg"
            },
            "_indicatorGraphic": {
                "_isComplete": "course/en/images/menu_btn2_complete.png",
                "_isVisited": "course/en/images/menu_btn2_started.png",
                "_default":"course/en/images/menu_btn2_notStarted.png",
                "_accessibilityEnabled": "course/en/images/menu_btn2_notStarted.png"
            },
            "menuViewButton": "Select here to view page two."
        },
        "_ariaLabels": {
            "menuItemPage": "Page 2, tab to View button to enter."
        },
        "linkText":"View",
        "duration":"2 mins",
        "_footer": {
            "_isEnabled": true,
            "_isContinuous": "global",
            "_buttons": {
                "_root": {
                    "_isHidden": false,
                    "text": "Go to main menu"
                },
                "_up": {
                    "_isHidden": true,
                    "text": "Back to menu"
                },
                "_previous": {
                    "_isHidden": true,
                    "text": "< Previous"
                },
                "_next": {
                    "_isHidden": true,
                    "text": "Next >"
                }
            }
        }
    },
    {
        "_id":"co-15",
        "_parentId":"co-02",
        "_type":"page",
        "_classes":"",
        "coursetitle":"Catering<br/> Health and Safety",
        "title":"Creating a safe workplace",
        "displayTitle":"Creating a safe workplace",
        "body":"Welcome to this Health & Safety topic on creating a safe workplace.",
        "_coverMenu":{
            "_backgroundGraphic": {
                "alt": "This is a picture of Adapt's origami birds.",
                "src": "course/en/images/menu_bg_3.jpg"
            },
            "_indicatorGraphic": {
                "_isComplete": "course/en/images/menu_btn3_complete.png",
                "_isVisited": "course/en/images/menu_btn3_started.png",
                "_default":"course/en/images/menu_btn3_notStarted.png",
                "_accessibilityEnabled": "course/en/images/menu_btn3_notStarted.png"
            },
            "menuViewButton": "Select here to view page three."
        },
        "_ariaLabels": {
            "menuItemPage": "Page 3, tab to View button to enter."
        },
        "linkText":"View",
        "duration":"2 mins",
         "_footer": {
            "_isEnabled": true,
            "_isContinuous": "global",
            "_buttons": {
                "_root": {
                    "_isHidden": false,
                    "text": "Go to main menu"
                },
                "_up": {
                    "_isHidden": true,
                    "text": "Back to menu"
                },
                "_previous": {
                    "_isHidden": true,
                    "text": "< Previous"
                },
                "_next": {
                    "_isHidden": true,
                    "text": "Next >"
                }
            }
         }
    },
    {
        "_id":"co-20",
        "_parentId":"co-02",
        "_type":"page",
        "_classes":"",
        "coursetitle":"Catering<br/> Health and Safety",
        "title":"Test your knowledge",
        "displayTitle":"Test your knowledge",
        "body":"Take this short assessment to check your knowledge. Use the guided learning feature to help improve your score if you don't pass first time.",
        "_coverMenu":{
            "_backgroundGraphic": {
                "alt": "This is a picture of Adapt's origami birds.",
                "src": "course/en/images/menu_bg_4.jpg"
            },
            "_indicatorGraphic": {
                "_isComplete": "course/en/images/menu_btn4_complete.png",
                "_isVisited": "course/en/images/menu_btn4_started.png",
                "_default":"course/en/images/menu_btn4_notStarted.png",
                "_accessibilityEnabled": "course/en/images/menu_btn4_notStarted.png",
                "_isLocked": "course/en/images/menu_padlock.png",
                "_isPassed": "course/en/images/menu_tick.png",
                "_isFailed": "course/en/images/menu_cross.png"
            },
            "menuViewButton": "Select here to view page four."
        },
        "_ariaLabels": {
            "menuItemPage": "Page 4, tab to View button to enter."
        },
        "_strickle": {
            "_isEnabled": true
        },
        "linkText":"View",
        "duration":"10 mins",
        "_bookmarking": {
            "_isEnabled": true,
            "_level": "page"
        },
        "_learnerassistant": {
            "_redirectOnPassed": true
        },
        "_lock": ["co-05", "co-10", "co-15"]
    }
]