{
    "_id": "course",
    "_type": "course",
    "title": "Kineo Essentials P101 Build v1.0",
    "displayTitle": "Kineo Essentials P101 Build v1.0",
    "body": "This release is aimed at developers who want to get involved with the Adapt Open Source initiative. Select a menu option below to find out more.",
    "_buttons": {
        "submit": "Submit",
        "reset": "Reset",
        "showCorrectAnswer": "Model Answer",
        "hideCorrectAnswer": "My Answer",
        "showFeedback": "Show Feedback",
        "remainingAttempts": "attempts left",
        "remainingAttempt": "attempt left"
    },
    "_accessibility": {
        "_accessibilityToggleTextOn": "Turn accessibility on?",
        "_accessibilityToggleTextOff": "Turn accessibility off?",
        "_ariaLabels": {
            "previous": "Back",
            "navigationBack": "Navigate back",
            "navigationDrawer": "This is drawer which contains additional course resources. Select here to open.",
            "close": "Close",
            "drawer": "Close Drawer",
            "closePopup": "Close pop-up",
            "next": "Next",
            "done": "Done",
            "menuItem": "Menu item. Select to view.",
            "accessibilityToggleButton": "By selecting this button you can set whether accessibility is turned on or off"
        },
        "_ariaRegions": {
            "accordion": "Accordion component - This component is an accordion comprised of collapsible content panels containing display text. Select the item titles to toggle the visibility of these content panels.",
            "blank": "",
            "gmcq": "This component is a graphical multiple choice question. You can only select one option. Once you have selected an option select the submit button below",
            "graphic": "This component just displays a graphic",
            "hotGraphic": "Below is a component which allows you to click on hot spots over an image. When you click on a hot spot you trigger a pop-up that includes an image with text. You can simply tab through the pop-up slides or close and select the next hot spot.",
            "matching": "This question component requires you to select the matching answer from a drop down list below. When you have selected your answers select the submit button",
            "mcq": "This component is a multiple choice question. Once you have selected an option select the submit button below",
            "media": "This is a media component which plays audio and video. To watch or listen click on play. Alternatively you can select the link below for the transcript.",
            "narrative": "This component displays an image gallery with accompanying text. Select the 'next' and 'previous' navigation controls to work through the narrative.",
            "slider": "This component requires you to answer the question by positioning a slider on a scale. Holding down the ALT key use the left and right keyboard arrows to position the slider. Then select the submit button below.",
            "text": "",
            "textInput": "This question component requires you to type your answer in the textbox provided. When you have answered the question select the submit button below.",
            "coverFlowMenuStart": "Select here to enter course menu"
        },
        "_buttonAria": {
            "submitLabel": "Select here to submit your answer.",
            "disabledLabel": "Unavailable. This button will remain disabled until the question component is completed."
        }
    },
    "_latestTrackingId": 39,
    "_pageLevelProgress": {
        "_altText": "of components completed on this page"
    },
    "_resources": {
        "title": "Resources",
        "description": "Click here to view resources for this course",
        "_filterButtons": {
            "all": "All",
            "document": "PDF",
            "media": "Media",
            "link": "Link"
        },
        "_filterAria": {
            "allAria": "View all resources",
            "documentAria": "View document resources",
            "mediaAria": "View media resources",
            "linkAria": "View resource links"
        },
        "_resourcesItems": [
            {
                "_type": "document",
                "title": "Button idea",
                "description": "Click here to see a proposed button idea",
                "_link": "course/en/pdf/examplepdf.pdf"
            },
            {
                "_type": "media",
                "title": "Adapt Learning YouTube Channel",
                "description": "Fancy catching up on some Adapt material",
                "_link": "https://www.youtube.com/channel/UCW8SlSFuCc--B66Gf9fAEcQ"
            },
            {
                "_type": "link",
                "title": "Community Site",
                "description": "Click here to view our community site",
                "_link": "https://community.adaptlearning.org"
            }
        ]
    },
    "_banks": {
        "1": {
            "title": "Bank1 - Learning outcome etc."
        },
        "2": {
            "title": "Bank2 - Learning outcome etc."
        },
        "3": {
            "title": "Bank3 - Learning outcome etc."
        },
        "4": {
            "title": "Bank4 - Learning outcome etc."
        },
        "5": {
            "title": "Bank5 - Learning outcome etc."
        }
    },
    "_learnerassistant": {
        "_showAllBankQuestions": false,
        "_sortResultsBanksBy": "mostInBank",
        "_guidedLearningTitle": "Revision Mode",
        "_resultsTitle": "Results",
        "_certificateTitle": "Certificate",
        "_drawerTitle": "Subjects for Revision",
        "_certificateGraphics": {
            "_imageURL": "assets/background-image.png",
            "_textFont": "18pt sans-serif",
            "_textColor": "#CF3239",
            "_titleText": {
                "_top": "458",
                "_left": "387.5",
                "_maxwidth": "300"
            },
            "_userText": {
                "_top": "550",
                "_left": "387.5",
                "_maxwidth": "300"
            },
            "_dateText": {
                "_top": "620",
                "_left": "387.5",
                "_maxwidth": "300"
            }
        },
        "_quizProgressTutorButton": {
            "_show": true,
            "title": "Revision Mode",
            "body": "The circle icons at the bottom of the screen will fill as you progress through the assessment. Once you’ve completed all the questions you’ll receive feedback on how you did.",
            "button": "OK"
        },
        "_resultsTutorButton": {
            "_show": true,
            "title": "Revision mode",
            "body": "Once you begin your revision, click on me again to see your progress",
            "button": "OK"
        },
        "_certificateTutorButton": {
            "_show": true,
            "title": "Revision mode",
            "body": "Click Back to Menu to go back to the menu or Print to print your certificate",
            "button": "OK"
        },
        "_quitGuidedLearning": {
            "_show": true,
            "title": "Leave revision mode",
            "body": "Are you sure you would like to leave?",
            "buttons": {
                "yes": "Leave",
                "no": "Stay"
            }
        },
        "_quitCertificate": {
            "_show": true,
            "title": "Leave Certificate",
            "body": "Are you sure you would like to leave?",
            "buttons": {
                "yes": "Leave",
                "no": "Stay"
            }
        },
        "_beforeCertificate": {
            "_show": true,
            "title": "Congratulations!",
            "body": "You scored 100% in the assessment. Select <b>Show certificate</b> to view your certificate of completion.",
            "button": "Show certificate"
        },
        "_certificate": {
            "title": "Congratulations",
            "body": "%. Your certificate is below",
            "youScored": "You scored"
        },
        "_beforeRevision": {
            "_show": true,
            "title": "Almost there!",
            "body": "You’ve completed the assessment, but you haven’t scored enough to pass just yet. Let’s see your score and what you need to revise.",
            "button": "See results"
        },
        "_start": {
            "title": "Welcome to your results",
            "body": "%. Take a look at the revision plan we’ve drawn up for you below. It highlights the subjects that we recommend you review again so that you can have another go at the <b>Test your knowledge assessment</b>. To review the subjects, either select the <b>Launch revision mode</b> button at the bottom of the screen, or select the progress bar in the bottom right. Once you’ve reviewed a subject you’ll see that the flag icon in the revision plan will change to a book, showing that you’ve completed that subject.",
            "youScored": "You scored"
        },
        "_beginRevision": {
            "_show": true,
            "title": "Ready to revise?",
            "body": "We’re about to take you on a guided learning journey through the course. Complete the components that appear in view, then select <b>Next</b> to move on to the next one. Alternatively, move through the components in the order you wish by choosing them from the progress bar. You can select the mortarboard icon to move back to the results panel at any point, or, if you want to stop revising, select <b>Quit revision mode</b>.",
            "button": "OK"
        },
        "_endRevision": {
            "_show": true,
            "title": "Time to try again",
            "body": "Now you’ve completed revision mode we’ll take you back to the randomised questions so you can retake the assessment.",
            "button": "Take assessment"
        },
        "_guidedLearningButtons": {
            "_next": "Next",
            "_start": "Launch revision mode",
            "_continue": "Continue Revision",
            "_end": "Quit revision mode",
            "_finish": "Finish"
        },
        "_certificateButtons": {
            "_end": "Back to Menu",
            "_print": "Print"
        },
        "_results": {
            "_status": "Your status",
            "_bank": "Subjects for revision",
            "_associateLearnings": "Subjects to revise",
            "_toReview": "Flagged for review",
            "_reviewed": "Reviewed"
        },
        "_assessmentPageLevelProgress": {
            "_incrementalMarking": false,
            "_showInvisible": true,
            "_showProgress": true
        }
    },
    "_rollay": {
        "_duration": {
            "show": 200,
            "hide": 200
        }
    },
    "_bottomnavigation": {
        "_duration": {
            "show": 200,
            "hide": 200
        },
        "_showMenu": false
    },
    "_search": {
        "title": "",
        "description": "Type in search words and enter",
        "noResultsMessage": "Sorry, no results were found"
    },
    "_locationIds": {
        "_intro": "co-01",
        "_menu": "co-02"
    },
    "_bookmarking": {
        "_isEnabled": true,
        "_level": "component",
        "title": "Bookmarking",
        "message": "Whould you like to continue where you left off?",
        "_buttons": {
            "yes": "Yes",
            "no": "No"
        }
    }
}